<?xml version="1.0" encoding="UTF-8" standalone="no"?>
<svg
   xmlns:dc="http://purl.org/dc/elements/1.1/"
   xmlns:cc="http://creativecommons.org/ns#"
   xmlns:rdf="http://www.w3.org/1999/02/22-rdf-syntax-ns#"
   xmlns:svg="http://www.w3.org/2000/svg"
   xmlns="http://www.w3.org/2000/svg"
   xmlns:sodipodi="http://sodipodi.sourceforge.net/DTD/sodipodi-0.dtd"
   xmlns:inkscape="http://www.inkscape.org/namespaces/inkscape"
   inkscape:output_extension="org.inkscape.output.svg.inkscape"
   sodipodi:docname="stop-metro.svg"
   version="1.0"
   inkscape:version="1.0 (6e3e5246a0, 2020-05-07)"
   sodipodi:version="0.32"
   id="svg11374"
   height="160.76505"
   width="320">
  <defs
     id="defs11376">
    <inkscape:perspective
       id="perspective11382"
       inkscape:persp3d-origin="372.04724 : 350.78739 : 1"
       inkscape:vp_z="744.09448 : 526.18109 : 1"
       inkscape:vp_y="0 : 1000 : 0"
       inkscape:vp_x="0 : 526.18109 : 1"
       sodipodi:type="inkscape:persp3d" />
  </defs>
  <sodipodi:namedview
     inkscape:document-rotation="0"
     inkscape:window-maximized="1"
     inkscape:window-y="27"
     inkscape:window-x="72"
     inkscape:window-height="1016"
     inkscape:window-width="1848"
     showgrid="false"
     inkscape:current-layer="layer1"
     inkscape:document-units="px"
     inkscape:cy="111.50912"
     inkscape:cx="82.140642"
     inkscape:zoom="0.98543502"
     inkscape:pageshadow="2"
     inkscape:pageopacity="0.0"
     borderopacity="1.0"
     bordercolor="#666666"
     pagecolor="#ffffff"
     id="base" />
  <metadata
     id="metadata11379">
    <rdf:RDF>
      <cc:Work
         rdf:about="">
        <dc:format>image/svg+xml</dc:format>
        <dc:type
           rdf:resource="http://purl.org/dc/dcmitype/StillImage" />
        <dc:title></dc:title>
      </cc:Work>
    </rdf:RDF>
  </metadata>
  <g
     transform="translate(-290.17887,-232.98701)"
     id="layer1"
     inkscape:groupmode="layer"
     inkscape:label="Ebene 1">
    <g
       style="fill:#000000"
       transform="matrix(16.472327,0,0,-16.472327,318.59499,149.41361)"
       id="g2578" />
    <g
       style="fill:#000000;fill-opacity:1;stroke:none"
       transform="matrix(16.472327,0,0,-16.472327,450.08392,269.93089)"
       id="g2582">
      <path
         id="path2584"
         style="fill:#000000;fill-opacity:1;fill-rule:evenodd;stroke:none"
         d="M 0,0 2.094,2.197 3.819,2.191 3.798,-3.264 2.254,-3.258 2.267,0.118 -0.007,-2.179 -2.262,0.135 -2.275,-3.241 -3.82,-3.235 -3.799,2.22 -2.074,2.213 Z" />
    </g>
    <g
       style="fill:#000000;fill-opacity:1;stroke:none"
       transform="matrix(16.472327,0,0,-16.472327,290.17887,232.98701)"
       id="g2586">
      <path
         id="path2588"
         style="fill:#000000;fill-opacity:1;fill-rule:evenodd;stroke:none"
         d="M 0,0 5.455,-0.021 5.446,-2.365 2.335,-2.353 Z" />
    </g>
    <g
       style="fill:#000000;fill-opacity:1;stroke:none"
       transform="matrix(16.472327,0,0,-16.472327,610.39604,234.22072)"
       id="g2590">
      <path
         id="path2592"
         style="fill:#000000;fill-opacity:1;fill-rule:evenodd;stroke:none"
         d="m 0,0 -5.46,0.021 -0.009,-2.344 3.116,-0.012 z" />
    </g>
    <g
       style="fill:#000000;fill-opacity:1;stroke:none"
       transform="matrix(16.472327,0,0,-16.472327,336.06418,279.228)"
       id="g2594">
      <path
         id="path2596"
         style="fill:#000000;fill-opacity:1;fill-rule:evenodd;stroke:none"
         d="M 0,0 2.659,-0.01 2.648,-2.669 Z" />
    </g>
    <g
       style="fill:#000000;fill-opacity:1;stroke:none"
       transform="matrix(16.472327,0,0,-16.472327,564.15018,280.10604)"
       id="g2598">
      <path
         id="path2600"
         style="fill:#000000;fill-opacity:1;fill-rule:evenodd;stroke:none"
         d="m 0,0 -2.663,0.01 -0.01,-2.663 z" />
    </g>
    <g
       style="fill:#000000;fill-opacity:1;stroke:none"
       transform="matrix(16.472327,0,0,-16.472327,387.12181,330.67951)"
       id="g2602">
      <path
         id="path2604"
         style="fill:#000000;fill-opacity:1;fill-rule:evenodd;stroke:none"
         d="M 0,0 7.624,-0.029 3.8,-3.829 Z" />
    </g>
  </g>
</svg>
