<?xml version="1.0" encoding="UTF-8" standalone="no"?>
<!-- Created with Inkscape (http://www.inkscape.org/) -->

<svg
   xmlns:dc="http://purl.org/dc/elements/1.1/"
   xmlns:cc="http://creativecommons.org/ns#"
   xmlns:rdf="http://www.w3.org/1999/02/22-rdf-syntax-ns#"
   xmlns:svg="http://www.w3.org/2000/svg"
   xmlns="http://www.w3.org/2000/svg"
   xmlns:sodipodi="http://sodipodi.sourceforge.net/DTD/sodipodi-0.dtd"
   xmlns:inkscape="http://www.inkscape.org/namespaces/inkscape"
   width="256"
   height="256"
   viewBox="0 0 256 256"
   id="svg2"
   version="1.1"
   inkscape:version="0.92.4 (f8dce91, 2019-08-02)"
   sodipodi:docname="transport-winter.svg"
   inkscape:export-filename="/home/zubozrout/Dokumenty/Projects/Transport/Transport.png"
   inkscape:export-xdpi="90"
   inkscape:export-ydpi="90">
  <defs
     id="defs4">
    <filter
       inkscape:collect="always"
       style="color-interpolation-filters:sRGB"
       id="filter4509"
       x="-0.012126302"
       width="1.0242526"
       y="-0.011876302"
       height="1.0237526">
      <feGaussianBlur
         inkscape:collect="always"
         stdDeviation="0.90947266"
         id="feGaussianBlur4511" />
    </filter>
  </defs>
  <sodipodi:namedview
     id="base"
     pagecolor="#ffffff"
     bordercolor="#666666"
     borderopacity="1.0"
     inkscape:pageopacity="0.0"
     inkscape:pageshadow="2"
     inkscape:zoom="1.7949219"
     inkscape:cx="64.812217"
     inkscape:cy="152.1482"
     inkscape:document-units="px"
     inkscape:current-layer="layer1"
     showgrid="false"
     units="px"
     inkscape:window-width="1850"
     inkscape:window-height="1016"
     inkscape:window-x="70"
     inkscape:window-y="27"
     inkscape:window-maximized="1"
     showguides="true" />
  <metadata
     id="metadata7">
    <rdf:RDF>
      <cc:Work
         rdf:about="">
        <dc:format>image/svg+xml</dc:format>
        <dc:type
           rdf:resource="http://purl.org/dc/dcmitype/StillImage" />
        <dc:title />
      </cc:Work>
    </rdf:RDF>
  </metadata>
  <g
     inkscape:label="Vrstva 1"
     inkscape:groupmode="layer"
     id="layer1"
     transform="translate(0,-796.36216)">
    <path
       style="fill:#006088;fill-opacity:1;stroke:none;stroke-width:1.5;stroke-linecap:square;stroke-linejoin:round;stroke-miterlimit:4;stroke-dasharray:none;stroke-opacity:1"
       d="m 0,796.36218 256,0 0,256.00002 -256,0 z"
       id="rect4191" />
    <path
       style="fill:#004b7b;fill-opacity:1;stroke:none;stroke-width:1.5;stroke-linecap:square;stroke-linejoin:round;stroke-miterlimit:4;stroke-dasharray:none;stroke-opacity:1"
       d="m 0,973.86216 256,0 0,78.50004 -256,0 z"
       id="rect4193"
       inkscape:connector-curvature="0"
       sodipodi:nodetypes="ccccc" />
    <g
       id="g4441-4"
       transform="matrix(1.0333333,0,0,1.0333333,-3.9621585,-29.387741)"
       style="opacity:0.16000001;fill:#000000;filter:url(#filter4509)">
      <path
         inkscape:connector-curvature="0"
         style="color:#000000;font-style:normal;font-variant:normal;font-weight:normal;font-stretch:normal;font-size:medium;line-height:normal;font-family:sans-serif;text-indent:0;text-align:start;text-decoration:none;text-decoration-line:none;text-decoration-style:solid;text-decoration-color:#000000;letter-spacing:normal;word-spacing:normal;text-transform:none;direction:ltr;block-progression:tb;writing-mode:lr-tb;baseline-shift:baseline;text-anchor:start;white-space:normal;clip-rule:nonzero;display:inline;overflow:visible;visibility:visible;opacity:1;isolation:auto;mix-blend-mode:normal;color-interpolation:sRGB;color-interpolation-filters:linearRGB;solid-color:#000000;solid-opacity:1;fill:#000000;fill-opacity:1;fill-rule:evenodd;stroke:none;stroke-width:6;stroke-linecap:round;stroke-linejoin:miter;stroke-miterlimit:4;stroke-dasharray:none;stroke-dashoffset:0;stroke-opacity:1;color-rendering:auto;image-rendering:auto;shape-rendering:auto;text-rendering:auto;enable-background:accumulate"
         d="m 128,36.105469 c -37.762865,-0.0043 -75.526457,7.08672 -80.597656,21.308593 l -3.990235,0 C 40.414139,57.414062 38,59.828201 38,62.826172 l 0,21.644531 c 0,2.997971 2.414139,5.41211 5.412109,5.412109 l 3.416016,0 0,85.433598 c 0,13.22634 10.650612,23.8789 23.876953,23.8789 l 2.097656,0 0,15.28711 c 0,2.99797 2.414139,5.41211 5.41211,5.41211 l 10.822265,0 c 2.997971,0 5.41211,-2.41414 5.41211,-5.41211 l 0,-15.28711 67.101561,0 0,15.28711 c 0,2.99797 2.41414,5.41211 5.41211,5.41211 l 10.82227,0 c 2.99797,0 5.41211,-2.41414 5.41211,-5.41211 l 0,-15.28711 2.09765,0 c 13.22634,0 23.87696,-10.65256 23.87696,-23.8789 l 0,-85.433598 3.41601,0 c 2.99797,0 5.41211,-2.414138 5.41211,-5.412109 l 0,-21.644531 c 0,-2.997971 -2.41414,-5.41211 -5.41211,-5.41211 l -3.99023,0 C 203.50695,43.215307 165.75064,36.10983 128,36.105469 Z m -30,12.554687 60,0 0,18 -60,0 0,-18 z m -29.527344,21.267578 119.054684,0 0,50.732426 -52.17187,0 5.8457,-3.375 35.32813,-9.46485 a 3.0003,3.0003 0 0 0 -0.75391,-5.91015 3.0003,3.0003 0 0 0 -0.79883,0.11328 l -36.09179,9.67187 -13.03321,7.52344 a 3.0004839,3.0004839 0 0 0 -1.26367,1.44141 l -36.341796,0 5.845703,-3.375 35.328123,-9.46485 a 3.0003,3.0003 0 0 0 -0.7539,-5.91015 3.0003,3.0003 0 0 0 -0.79883,0.11328 l -36.091799,9.67187 -13.033203,7.52344 a 3.0004839,3.0004839 0 0 0 -1.263672,1.44141 l -9.00586,0 0,-50.732426 z m 12.751953,80.564456 c 5.386873,0 9.740235,4.35337 9.740235,9.74023 0,5.38688 -4.353362,9.77344 -9.740235,9.77344 -5.386873,0 -9.77539,-4.38656 -9.77539,-9.77344 0,-5.38686 4.388517,-9.74023 9.77539,-9.74023 z m 93.550781,0 c 5.38688,0 9.77539,4.35337 9.77539,9.74023 0,5.38688 -4.38851,9.77344 -9.77539,9.77344 -5.38688,0 -9.74023,-4.38656 -9.74023,-9.77344 0,-5.38686 4.35335,-9.74023 9.74023,-9.74023 z"
         transform="translate(-0.29468124,796.91929)"
         id="path4424-3" />
    </g>
    <g
       id="g4474"
       transform="translate(0,-1.2284452e-6)">
      <path
         id="rect4407-2"
         d="m 68,928.86493 120,0 0,52 -120,0 z"
         style="opacity:1;fill:#ffcc00;fill-opacity:1;stroke:none;stroke-width:1.5;stroke-linecap:square;stroke-linejoin:round;stroke-miterlimit:4;stroke-dasharray:none;stroke-opacity:1"
         inkscape:connector-curvature="0" />
      <g
         id="g4468">
        <g
           id="g4441"
           transform="translate(0.29468124,-0.55712728)">
          <path
             style="color:#000000;font-style:normal;font-variant:normal;font-weight:normal;font-stretch:normal;font-size:medium;line-height:normal;font-family:sans-serif;text-indent:0;text-align:start;text-decoration:none;text-decoration-line:none;text-decoration-style:solid;text-decoration-color:#000000;letter-spacing:normal;word-spacing:normal;text-transform:none;direction:ltr;block-progression:tb;writing-mode:lr-tb;baseline-shift:baseline;text-anchor:start;white-space:normal;clip-rule:nonzero;display:inline;overflow:visible;visibility:visible;opacity:1;isolation:auto;mix-blend-mode:normal;color-interpolation:sRGB;color-interpolation-filters:linearRGB;solid-color:#000000;solid-opacity:1;fill:#f9f9f9;fill-opacity:1;fill-rule:evenodd;stroke:#ffffff;stroke-width:0.69999999;stroke-linecap:round;stroke-linejoin:miter;stroke-miterlimit:4;stroke-dasharray:none;stroke-dashoffset:0;stroke-opacity:1;color-rendering:auto;image-rendering:auto;shape-rendering:auto;text-rendering:auto;enable-background:accumulate"
             d="m 128,36.105469 c -37.762865,-0.0043 -75.526457,7.08672 -80.597656,21.308593 l -3.990235,0 C 40.414139,57.414062 38,59.828201 38,62.826172 l 0,21.644531 c 0,2.997971 2.414139,5.41211 5.412109,5.412109 l 3.416016,0 0,85.433598 c 0,13.22634 10.650612,23.8789 23.876953,23.8789 l 2.097656,0 0,15.28711 c 0,2.99797 2.414139,5.41211 5.41211,5.41211 l 10.822265,0 c 2.997971,0 5.41211,-2.41414 5.41211,-5.41211 l 0,-15.28711 67.101561,0 0,15.28711 c 0,2.99797 2.41414,5.41211 5.41211,5.41211 l 10.82227,0 c 2.99797,0 5.41211,-2.41414 5.41211,-5.41211 l 0,-15.28711 2.09765,0 c 13.22634,0 23.87696,-10.65256 23.87696,-23.8789 l 0,-85.433598 3.41601,0 c 2.99797,0 5.41211,-2.414138 5.41211,-5.412109 l 0,-21.644531 c 0,-2.997971 -2.41414,-5.41211 -5.41211,-5.41211 l -3.99023,0 C 203.50695,43.215307 165.75064,36.10983 128,36.105469 Z m -30,12.554687 60,0 0,18 -60,0 0,-18 z m -29.527344,21.267578 119.054684,0 0,50.732426 -52.17187,0 5.8457,-3.375 35.32813,-9.46485 a 3.0003,3.0003 0 0 0 -0.75391,-5.91015 3.0003,3.0003 0 0 0 -0.79883,0.11328 l -36.09179,9.67187 -13.03321,7.52344 a 3.0004839,3.0004839 0 0 0 -1.26367,1.44141 l -36.341796,0 5.845703,-3.375 35.328123,-9.46485 a 3.0003,3.0003 0 0 0 -0.7539,-5.91015 3.0003,3.0003 0 0 0 -0.79883,0.11328 l -36.091799,9.67187 -13.033203,7.52344 a 3.0004839,3.0004839 0 0 0 -1.263672,1.44141 l -9.00586,0 0,-50.732426 z m 12.751953,80.564456 c 5.386873,0 9.740235,4.35337 9.740235,9.74023 0,5.38688 -4.353362,9.77344 -9.740235,9.77344 -5.386873,0 -9.77539,-4.38656 -9.77539,-9.77344 0,-5.38686 4.388517,-9.74023 9.77539,-9.74023 z m 93.550781,0 c 5.38688,0 9.77539,4.35337 9.77539,9.74023 0,5.38688 -4.38851,9.77344 -9.77539,9.77344 -5.38688,0 -9.74023,-4.38656 -9.74023,-9.77344 0,-5.38686 4.35335,-9.74023 9.74023,-9.74023 z"
             transform="translate(-0.29468124,796.91929)"
             id="path4424"
             inkscape:connector-curvature="0" />
        </g>
      </g>
    </g>
    <g
       transform="matrix(4.3291995,0,0,4.3291995,-10.534384,-3492.9893)"
       id="layer1-2"
       inkscape:label="Vrstva 1"
       style="fill:#ffffff">
      <g
         inkscape:label="Vrstva 1"
         id="layer1-1"
         transform="matrix(0.25,0,0,0.25,0,789.27163)"
         style="fill:#ffffff">
        <g
           transform="translate(0,796.36218)"
           style="font-style:normal;font-weight:normal;font-size:40px;line-height:125%;font-family:Sans;letter-spacing:0px;word-spacing:0px;fill:#ffffff;fill-opacity:1;stroke:none"
           id="text2984" />
        <g
           id="g3778"
           transform="translate(-3.2552261,0)"
           style="fill:#ffffff" />
        <g
           id="g3802"
           transform="translate(-4.787678,0)"
           style="fill:#ffffff" />
        <g
           id="g3846"
           transform="translate(-0.22964859,0)"
           style="fill:#ffffff" />
      </g>
    </g>
    <g
       id="g4462">
      <g
         id="text4447"
         style="font-style:normal;font-weight:normal;font-size:40px;line-height:125%;font-family:Sans;letter-spacing:0px;word-spacing:0px;fill:#ffffff;fill-opacity:1;stroke:none;stroke-width:1px;stroke-linecap:butt;stroke-linejoin:miter;stroke-opacity:1"
         transform="translate(0,-1.3928183)" />
    </g>
  </g>
</svg>
